Here’s an extra page
…
##Chart A

Final_rest_df %>%
  mutate(text_label = str_c("name: ", dba, "\nstreet: ", street,"\nzipcode",zipcode)) %>% 
  plot_ly(
     x = ~cuisine_description, y = ~score, type = "scatter", mode = "markers",
    color = ~grade, text = ~text_label, alpha = 0.5)

Final_rest_df

## # A tibble: 5,000 × 8
##    boro      dba                  cuisine_des…¹ zipcode score grade street phone
##    <chr>     <chr>                <chr>           <int> <int> <chr> <chr>  <chr>
##  1 MANHATTAN FRENCH CAFE GOURMAND French          10038     4 A     MAIDE… 6467…
##  2 MANHATTAN OFF THE WAGON        American        10012    13 A     MACDO… 2125…
##  3 MANHATTAN MAX SOHA             Italian         10027    10 A     AMSTE… 2125…
##  4 MANHATTAN DUNKIN' DONUTS       Donuts          10025    12 A     W 104… 2122…
##  5 MANHATTAN FITZGERALD'S PUB     American        10010    13 A     THIRD… 2126…
##  6 MANHATTAN FILAGA               Pizza/Italian   10011     8 A     9th A… 6466…
##  7 MANHATTAN SUSHIDEN             Japanese        10017     2 A     EAST … 2127…
##  8 MANHATTAN VAPIANO              Italian         10003    24 B     UNIVE… 2127…
##  9 MANHATTAN FLAVORS              American        10004     8 A     WHITE… 2122…
## 10 MANHATTAN MORANDI              Italian         10014    13 A     CHARL… 2126…
## # … with 4,990 more rows, and abbreviated variable name ¹​cuisine_description
…
